{
  "control": [
    { "VTOY_DEFAULT_MENU_MODE": "1" },
    { "VTOY_DEFAULT_SEARCH_ROOT": "/isos" }
  ],
    "theme": {
    "file": "/ventoy/theme/Vimix-1080p/Vimix/theme.txt",
    "gfxmode": "1024x768",
    "display_mode": "GUI",
    "ventoy_left": "5%",
    "ventoy_top": "95%",
    "ventoy_color": "#0000ff"
  },
  "menu_alias": [
    {
      "image": "/isos/Otros/hbcd-15.2-Restored-V1.1-dvd-proteus.iso",
      "alias": "Hiren's Boot CD"
    },
    {
      "image": "/isos/Otros/netboot.xyz.iso",
      "alias": "Netboot.XYZ BIOS"
    },
    {
      "image": "/isos/Otros/netboot.xyz-efi.iso",
      "alias": "Netboot.XYZ UEFI"
    },
    {
      "image": "/isos/Linux/debian-10.4.0-amd64-netinst.iso",
      "alias": "Debian 10.4.0 x64 NetInstall"
    },
    {
      "image": "/isos/Linux/pop-os_20.04_amd64_intel_10.iso",
      "alias": "Pop!_OS 20.04 x64"
    },
    {
      "image": "/isos/Linux/MX-19.2_x64.iso",
      "alias": "MX 19.2 PatitoFeo"
    },
    {
      "image": "/isos/Windows/SW_DVD5_WIN_ENT_LTSC_2019_64-bit_English_MLF_X21-96425.ISO",
      "alias": "Windows 10 LTSC 2019 English"
    },
    {
      "image": "/isos/Windows/Win10_2004_Spanish_x32.iso",
      "alias": "Windows 10 Pro/Home 2004 x32 Spanish"
    },
    {
      "image": "/isos/Windows/Win10_2004_Spanish_x64.iso",
      "alias": "Windows 10 Pro/Home 2004 x64 Spanish"
    }
  ],
  "menu_class": [
    {
      "key": "MX-",
      "class": "mx"
    },
    {
      "key": "ubuntu",
      "class": "ubuntu"
    },        
    {
      "key": "debian",
      "class": "debian"
    },        
    {
      "key": "pop-os",
      "class": "pop-os"
    },        
    {
      "key": "CentOS-7-",
      "class": "centos"
    },
    {
      "key": "Win10",
      "class": "windows"
    },
    {
      "key": "SW_DVD5",
      "class": "windows"
    }
  ]
}
